<svg xmlns="http://www.w3.org/2000/svg" id="flag-icon-css-aq" width="640" height="480">
  <path fill="#3a7dce" fill-rule="evenodd" d="M0 0h640v480H0z"/>
  <path fill="#fff" d="M184.83 225.328c-2.887-5.906-2.887-5.906-2.887-11.809-1.444 0-1.714.278-2.55.045-.835-.23-1.15 5.445-3.856 4.337-.45-.553 1.94-4.657-.655-6.364-.834-.555.203-3.922-.16-5.4 0 0-3.292 1.754-5.774-4.426-1.219-1.616-2.888 1.475-2.888 1.475s.722 1.891-.585 2.353c-1.85-1.384-3.204-.659-5.55-2.56-2.345-1.904.497-4.083-3.97-5.697 2.89-7.381 2.89-5.906 10.106-8.857-4.33-2.953-4.33-2.953-7.216-7.382-4.332-1.475-5.775-2.95-10.107-5.903-5.775-7.382-8.662-22.142-8.662-32.475 3.656-3.46 8.662 11.809 15.881 16.237l10.106 4.428c5.775 2.952 7.219 5.903 11.55 8.856l12.994 4.429c5.775 4.427 8.662 10.333 12.994 11.808 4.692 0 5.596-2.763 7.1-2.934 8.487-.446 12.82-1.564 14.51-4.17 1.714-2.076 5.82 1.2 17.37-3.229l-1.442-5.906s3.067-2.582 7.219-1.475c-.113-2.698-.385-9.893 3.703-13.14-2.483-2.662-.816-4.572-.816-4.572s2.3-2.261 2.57-3.46c-1.216-6.505 1.057-6.605 1.566-8.52.51-1.912-1.963-1.257-1.265-3.895.695-2.639 4.877-3.265 5.437-5.438.563-2.175-1.19-3.264-1.09-3.783.903-2.076.137-6.965 0-8.857 7.76-2.123 10.288-8.58 12.993-5.905 1.444-8.857 2.888-11.808 11.55-11.808 1.22-2.722-3.159-5.03-1.443-5.905 2.887-.37 5.098-.184 8.484 4.29 1.069 1.418 1.262-2.076 2.344-2.445 1.083-.37 3.675-.375 4.06-2.122.407-1.8.993-4.152 2.437-7.104 1.218-2.4 2.165.923 3.248 5.628 6.09.23 19.851 1.614 25.626 3.229 4.33 1.153 7.218-1.153 11.368-1.615 3.067 3.137 5.955.784 7.58 7.472 2.292 3.61 6.046.325 6.858 1.385 4.828 13.607 21.431 4.428 22.693 4.66 2.119 0 4.709 6.084 6.378 5.932 2.713-.467 1.945-2.359 4.312-1.598-.63 5.121 4.65 11.025 4.65 14.854 0 0 1.285.647 2.475-.49 1.19-1.135 2.284-4.053 3.343-3.985 2.528.37 3.552.702 6.463 1.222 7.828 2.735 11.816 3.352 14.856 4.753 1.416 2.647 2.784 4.001 5.653 3.506 2.368 1.628.64 3.76 2.04 3.898 2.887-1.477 3.833-3.091 6.721-1.615 2.887 1.476 5.775 4.429 7.219 7.381 0 1.476-1.444 7.38 0 16.238.722 2.95 1.071 5.292 4.172 10.355-.824 5.202 3.903 13.954 3.903 16.168 0 2.952-2.302 4.475-3.746 7.425 5.775 4.43 0 11.81-2.887 16.238 21.656 4.43 11.55 13.286 28.874 8.857-4.33 10.334-2.797 9.504 1.534 19.838-8.662 5.904-.18 7.702-5.953 15.082-.362.463 3.427 6.413 8.75 6.413-1.443 11.809-5.774 7.38-4.33 25.094-11.37-.229-6.77 13.24-14.438 11.81.45 8.442 4.376 9.18 2.887 17.713-5.775 1.477-5.775 1.477-8.662 5.906l-4.331-1.477c-1.444 7.381-4.331 8.857 0 16.238 0 0-5.594.185-7.219 0-.135 2.538 2.483 3.23 2.888 5.904-.225 1.062-8.211 5.72-14.438 5.907-1.622 3.643 4.331 7.518 3.971 9.362-6.768 1.338-9.745 9.825-9.745 9.825s3.473 1.431 2.888 2.954c-1.85-1.385-2.888-1.477-5.775-1.477-1.444.37-4.963-.09-8.337 5.732-3.703 1.247-5.45.797-8.259 4.594-1.244-3.62-3.033.034-5.22 1.438-2.184 1.406-5.128 4.9-5.525 4.75.091-1.014 1.354-4.706 1.354-4.706l-7.219 1.477-.888.091c-.568.056-.417-4.309-1.784-4.15-1.37.16-5.282 5.49-6.616 5.658-1.332.168-1.753-1.695-2.902-1.533-1.147.162-3.384 5.625-4.198 5.768-.813.146-4.037-3.318-6.8-2.836-14.212 5.122-16.469-10.101-18.678-1.52-2.978-1.615-2.462-.678-5.487.133-1.932.509-2.107-2.61-3.824-2.561-3.434.099-3.253 3.422-5.128 2.428-1.531-6.919-10.78-5.675-11.684-8.625-.733-3.08 4.008-3.066 5.541-5.152 1.172-3.01-1.224-4.153 3.534-7.056 6.2-4.288 2.635-5.907 3.722-9.128 1.945-4.654 1.956-5.789.332-9.894 0 0-4.828-13.285-5.775-13.285-2.887-.83-2.887 4.889-7.129 6.458-8.662 2.951-23.954-7.474-26.617-7.474-2.435.047-13.717 2.732-13.292-3.02-1.687 5.593-7.89 1.314-8.272 1.314-5.775 0-3.565 4.566-7.444 4.382-1.762-.6-19.535-1.66-19.535-1.66v2.952l-11.55-5.907-10.107-2.95c-8.662-2.953-4.33-10.334-18.768-5.906v-8.857h-7.219c2.887-17.714 0-8.856-1.444-25.094l-5.775 1.477c-5.775-7.98 8.03-6.458-4.331-11.808 0 0 .227-8.813-2.887-5.906-.631.37 1.443 4.43 1.443 4.43-11.55-1.476-14.437-4.43-14.437-16.238 0 0 9.52 1.385 8.662 0-1.352-2.213-3.112-16.606-2.796-17.575-.136-1.938 8.842-6.827 7.106-11.488 1.104-.415 4.352-.459 4.352-.459"/>
  <path fill="none" stroke="#fff" stroke-linecap="round" stroke-linejoin="round" stroke-width="2.108" d="M574.575 284.306c-.462 1.039-.38 2.077.098 2.817.856-1.284.133-1.877-.098-2.817z"/>
  <path fill="none" stroke="#fff" stroke-linejoin="round" stroke-width="1.976" d="M203.29 167.756s-2.422-.296-1.878 1.828c.79-1.63 1.828-1.728 1.877-1.828zm.543-4.94c-1.334.05-2.965-.197-2.421 1.926.79-1.631 2.371-1.828 2.421-1.926zm9.113 28.312s2.075-.148 1.531 1.976c-.79-1.63-1.48-1.877-1.531-1.976z"/>
</svg>
