<svg xmlns="http://www.w3.org/2000/svg" id="flag-icon-css-bw" width="640" height="480">
  <g fill-rule="evenodd">
    <path fill="#00cbff" d="M0 0h640v480H0z"/>
    <path fill="#fff" d="M0 160h640v160H0z"/>
    <path d="M0 185.97h640v108.05H0z"/>
  </g>
</svg>
