<svg xmlns="http://www.w3.org/2000/svg" id="flag-icon-css-cu" width="640" height="480">
  <defs>
    <clipPath id="a">
      <path fill-opacity=".67" d="M-32 0h682.67v512H-32z"/>
    </clipPath>
  </defs>
  <g fill-rule="evenodd" clip-path="url(#a)" transform="translate(30) scale(.94)">
    <path fill="#0050f0" d="M-32 0h768v512H-32z"/>
    <path fill="#fff" d="M-32 102.4h768v102.4H-32zm0 204.8h768v102.4H-32z"/>
    <path fill="#ed0000" d="M-32 0l440.69 255.67L-32 511.01V0z"/>
    <path fill="#fff" d="M161.75 325.47l-47.447-35.432-47.214 35.78 17.56-58.144-47.13-35.904 58.306-.5 18.084-57.97 18.472 57.836 58.305.077-46.886 36.243 17.948 58.016z"/>
  </g>
</svg>
