<svg xmlns="http://www.w3.org/2000/svg" xmlns:xlink="http://www.w3.org/1999/xlink" id="flag-icon-css-in" width="640" height="480">
  <path fill="#f93" d="M0 0h640v160H0z"/>
  <path fill="#fff" d="M0 160h640v160H0z"/>
  <path fill="#128807" d="M0 320h640v160H0z"/>
  <g transform="matrix(3.2 0 0 3.2 320 240)">
    <circle r="20" fill="#008"/>
    <circle r="17.5" fill="#fff"/>
    <circle r="3.5" fill="#008"/>
    <g id="d">
      <g id="c">
        <g id="b">
          <g id="a" fill="#008">
            <circle r=".875" transform="rotate(7.5 -8.75 133.5)"/>
            <path d="M0 17.5L.6 7 0 2l-.6 5L0 17.5z"/>
          </g>
          <use width="100%" height="100%" transform="rotate(15)" xlink:href="#a"/>
        </g>
        <use width="100%" height="100%" transform="rotate(30)" xlink:href="#b"/>
      </g>
      <use width="100%" height="100%" transform="rotate(60)" xlink:href="#c"/>
    </g>
    <use width="100%" height="100%" transform="rotate(120)" xlink:href="#d"/>
    <use width="100%" height="100%" transform="rotate(-120)" xlink:href="#d"/>
  </g>
</svg>
