<svg xmlns="http://www.w3.org/2000/svg" id="flag-icon-css-mk" width="640" height="480">
  <path fill="#d20000" d="M0 0h640v480H0z"/>
  <path fill="#ffe600" d="M0 0h96l224 231.43L544 0h96L0 480h96l224-231.43L544 480h96zm640 192v96L0 192v96zM280 0l40 205.714L360 0zm0 480l40-205.714L360 480z"/>
  <circle cx="320" cy="240" r="77.143" fill="#ffe600" stroke="#d20000" stroke-width="17.143"/>
</svg>
