<svg xmlns="http://www.w3.org/2000/svg" id="flag-icon-css-pr" width="640" height="480">
  <defs>
    <clipPath id="a">
      <path fill-opacity=".67" d="M-37.298 0h682.67v512h-682.67z"/>
    </clipPath>
  </defs>
  <g fill-rule="evenodd" clip-path="url(#a)" transform="translate(34.967) scale(.9375)">
    <path fill="#ed0000" d="M-37.298 0h768v512h-768z"/>
    <path fill="#fff" d="M-37.298 102.4h768v102.4h-768zm0 204.8h768v102.4h-768z"/>
    <path fill="#0050f0" d="M-37.298 0l440.69 255.67-440.69 255.34V0z"/>
    <path fill="#fff" d="M156.45 325.47l-47.447-35.432-47.214 35.78 17.56-58.144-47.128-35.904 58.305-.5 18.084-57.97 18.472 57.835 58.305.077-46.886 36.243 17.947 58.016z"/>
  </g>
</svg>
