<svg xmlns="http://www.w3.org/2000/svg" id="flag-icon-css-sd" width="640" height="480">
  <defs>
    <clipPath id="a">
      <path fill-opacity=".67" d="M0 0h682.67v512H0z"/>
    </clipPath>
  </defs>
  <g fill-rule="evenodd" stroke-width="1pt" clip-path="url(#a)" transform="scale(.9375)">
    <path d="M0 341.32h1024V512H0z"/>
    <path fill="#fff" d="M0 170.64h1024v170.68H0z"/>
    <path fill="red" d="M0 0h1024.8v170.68H0z"/>
    <path fill="#009a00" d="M0 0v512l341.32-256L0 0z"/>
  </g>
</svg>
