<svg xmlns="http://www.w3.org/2000/svg" id="flag-icon-css-sn" width="640" height="480">
  <g fill-rule="evenodd" stroke-width="1pt">
    <path fill="#0b7226" d="M-.006 0h213.328v480H-.006z"/>
    <path fill="#ff0" d="M213.322 0H426.65v480H213.322z"/>
    <path fill="#bc0000" d="M426.65 0h213.328v480H426.65z"/>
  </g>
  <path fill="#0b7226" d="M342.047 218.852h71.73l-56.627 43.556 20.762 69.314-56.627-43.569-56.627 41.588 20.762-67.333-56.627-43.556h69.844l22.648-71.295z"/>
</svg>
