<svg xmlns="http://www.w3.org/2000/svg" id="flag-icon-css-vc" width="640" height="480">
  <g fill-rule="evenodd">
    <path fill="#f4f100" d="M0 0h640v480H0z"/>
    <path fill="#199a00" d="M490 0h150v480H490z"/>
    <path fill="#0058aa" d="M0 0h150v480H0z"/>
    <path fill="#199a00" d="M259.26 129.95l-46.376 71.391 44.748 74.391 43.82-73.735-42.192-72.046zm121.28 0l-46.376 71.391 44.748 74.391 43.82-73.735-42.192-72.046zm-61.26 97.39l-46.376 71.391 44.748 74.391 43.82-73.735-42.192-72.046z"/>
  </g>
</svg>
