<svg xmlns="http://www.w3.org/2000/svg" id="flag-icon-css-wf" width="640" height="480">
  <g fill-rule="evenodd" stroke-width="1pt">
    <path fill="#fff" d="M0-.001h640v480H0z"/>
    <path fill="#00267f" d="M0-.001h213.337v480H0z"/>
    <path fill="#f31830" d="M426.662-.001H640v480H426.662z"/>
  </g>
</svg>
