<svg xmlns="http://www.w3.org/2000/svg" id="flag-icon-css-zm" width="640" height="480">
  <defs>
    <clipPath id="a">
      <path fill-opacity=".67" d="M-170.67 0H512v512h-682.67z"/>
    </clipPath>
  </defs>
  <g fill-rule="evenodd" clip-path="url(#a)" transform="translate(160) scale(.9375)">
    <path fill="#198a00" d="M-256 0h768v512h-768z"/>
    <path fill="#ef7d00" d="M421.87 183.94h90.126v328.03H421.87z"/>
    <path d="M331.85 183.78h90.029v328.1H331.85z"/>
    <path fill="#de2010" d="M239.95 183.98h91.935V512H239.95z"/>
    <g fill="#ef7d00" stroke="#000">
      <path stroke-linejoin="round" stroke-width=".993" d="M451.61 65.59s33.917-14.494 37.204-17.482c1.494 1.793-13.597 20.021-42.881 26.745 26.595-6.276 49.306-25.998 53.937-25.4 1.345.299 1.046 19.274-59.914 35.71 42.134-11.058 66.637-31.377 66.339-29.136.298.448-4.184 15.986-41.088 28.09 10.31-2.392 38.25-19.424 37.95-16.137.897 1.345-27.043 37.203-77.54 25.55 40.34 10.458 66.487-14.793 70.222-14.344.747.15-7.47 22.113-58.27 23.457 24.355-2.54 17.331-.15 17.331-.15s-14.343 11.206-31.675 3.587c13.597 3.736 15.09 3.885 15.39 5.08-.897 1.493-12.103 3.735-22.86-2.092 8.665 3.585 16.435 4.184 16.584 5.528-.149.448-5.677 3.586-10.607 1.345-4.93-2.242-50.352-30.181-50.352-30.181l77.392-21.217 2.839 1.046zm-90.988 75.579c-6.806 0-6.994 6.056-6.994 6.056s-.561.437-.187 3.373c1.124-2 1.686-2.624 1.686-2.624.75.126 3.871 1.062 8.804-2.809-4.496 4.682-1.81 6.431-1.81 6.431s-1.062 3.684 2.372 4.434c-1.061-1.5-.437-2.81-.437-2.81s4.808-.5 4.496-6.369c.187 5.307 3.06 6.618 3.06 6.618s0 2.935 3.121 3.185c-1.685-1.5-1.311-3.81-1.311-3.81s4.059-2.934.624-7.93c2.06-1.186 3.747-4.495 3.747-4.495s-2.81-1.187-4.12-2.185c-.626-1.312-.063-8.492-.063-8.492l-1.686-9.304-4.809 14.487c.187-2.06.313 6.244-6.493 6.244z"/>
      <path stroke-linejoin="round" stroke-width=".993" d="M394.237 120.271c.149.15 5.08 5.679 9.86 5.38 1.793-1.495-3.735-4.782-3.735-5.529 1.943 1.793 10.16 8.815 15.39 6.275 2.091-2.988-3.735-2.54-10.16-10.608 4.482 2.988 15.688 9.562 20.917 7.023 2.242-2.391-11.654-9.862-16.286-15.689l-11.952-6.125-16.286 13.297 12.252 5.976z"/>
      <path stroke-linecap="round" stroke-linejoin="round" stroke-width=".993" d="M375.857 74.853s5.528-3.287 27.641-1.644c2.39.299 15.09-4.333 19.125-5.677 6.424-1.196 26.893-5.678 32.422-9.861 3.885-.449-1.047 7.171-5.976 8.964-5.23 2.391-24.205 8.965-30.93 8.069 8.07.15 3.587 6.723-9.86 3.586 6.425 3.586 4.034 4.183 4.034 4.183s-11.355.598-14.343-1.942c7.62 2.839 4.482 3.885 4.482 3.885s-7.769.747-11.355-.897c5.528 1.644 2.69 2.69 2.69 2.69s-4.483.747-8.218-.598c-3.735-1.345-9.413-10.757-9.712-10.757z"/>
      <path stroke-linejoin="round" stroke-width=".993" d="M384.723 123.37l.812 14.612s-.437.75-.812 1.186c-.375.437-10.365-1.561-8.992 6.057 0 3.122.063 3.933 2.186 5.682-.562-2.06-.374-3.497-.374-3.497s2.809 1.686 5.557-2.934c-1.873 4.558-.563 6.181-.126 6.306.438.812-.748 4.496 2.998 4.433-1.436-1.374-.75-3.372-.75-3.372s3.935-.623 2.56-7.742c1.437-1.436 1.999-.062 1.999-.062s.437 4.245 3.871 3.371c1.562.874-.25 3.185-.25 3.185s2.498.062 3.247-2.061c.75-2.123 1.624-5.932-2.498-7.493-.499-1.498 1.624-1.623 1.624-1.623s2.623.874 3.372 2.185c.749 1.311.5-3.434-2.747-3.934-3.997-.125-4.246-.936-4.246-1.123 0-.188-.687-10.615-1-13.612l-6.431.436z"/>
      <path stroke-linecap="round" stroke-linejoin="round" stroke-width="1.059" d="M398.625 135.82c.05-.67-6.817-9.915-5.075-11.11 1.741.358 4.597 4.563 6.91 3.198-.701-1.639-2.768-.716-5.115-4.912-2.346-4.743-2.688-11.864-10.906-19.632 5.32 8.22 17.389 13.038 17.9 10.642s-10.627-11.46-10.056-13.645c2.215 4.486 13.398 14.481 21.638 13.653.565-1.924-6.748-5.808-8.63-9.434-5.263-3.536-19.35-15.679-19.631-18.494-5.126-7.475-8.326-9.737-9.816-10.599-.576-.678-.72-1.326-.833-1.739-3.182-7.501 1.033-9.937 3.5-10.297 2.03-.226 2.619.078 4.08-.63-1.73-.676-3.46-1.309-5.188-1.986 2.255 1.654 8.015.198 6.766 4.963 2.526-.961 7.9-7.354-6.09-8.797-4.553-5.223-23.271-8.225-27.957 14.57.374.32.57.583 1.76 1.472-5.915-2.859-21.858-5.068-27.602-5.997-15.526-4.479-31.648-15.272-33.198-13.945-2.073.92 9.38 11.575 8.784 11.81-9.93-5.79-19.002-9.891-27.442-13.625-5.939-2.22-11.886-7.387-12.542-6.404-2.186 4.527 9.52 15.908 11.698 17.246 2.177 1.28 19.303 9.225 19.05 9.324-25.793-11.708-30.118-13.83-31.412-15.18-2.274-.513-7.812-7.99-9.355-7.509-.845.83.85 12.645 13.158 17.949 2.006 1.462 26.384 10.207 26.145 10.893-.06.171-27.921-11.5-29.004-11.917-5.371-2.107-11.962-9.49-13.195-8.66-1.176.754 3.039 8.746 8.467 11.252 2.845 1.256 13.758 6.66 23.59 10.101.628.227-17.673-6.94-26.472-10.617-3.99-2.214-5.868-4.974-6.476-4.38-.899.593 1.452 12.399 29.728 19.06.745.317 9.953-2.182 9.498-1.85-.114.083-9.144 2.049-10.023 1.981-.782-.12-5.73.586-5.819.842-.299.799 1.793 5.026 16.392 4.145 1.867-.113 11.995-3.689 11.144-2.92-.425.385-13.792 4.729-14.81 4.814-.884.125-5.58.616-5.754 1.116-.212.681 3.476 3.69 11.316 4.171 6.942.37 20.133-4.241 19.868-3.942-.264.299-12.715 4.565-13.042 4.825-.45.255-5.01.502-5.17.853-.371.87 6.577 7.369 27.128.434-2.065 2.789-12.026 4.696-12.011 5.198-.047.364 2.194 2.53 5.677 3.304 1.74.387 4.125.308 6.303-.036 3.91-.783 8.033-2.33 13.27-7.17.626 1.519-13.083 8.456-12.44 9.118 2.974 2.756 12.848-.356 13.495-.717.647-.362 19.015-10.72 18.951-11.918.286 1.536-23.68 14.558-23.421 15.093 1.538 2.454 9.725-.13 10.116-.355.39-.225 10.448-5.658 10.724-5.819.275-.16-11.82 7.08-10.743 8.181-.521 4.701 18.89-3.244 20.41-4.234.762-.494-9.324 4.435-9.35 6.776 3.247 5.491 13.646 3.75 15.25 2.542.802-.605-.944 4.079-.381 3.653.195-.088 2.261-2.53 3.056-4.299-.254 1.534-1.394 3.951-2.059 6.724-.666 2.773-.857 5.902-1.77 9.226-.21 1.46 6.407-2.854 5.446-13.17.566 5.366-2.09 15.399-1.395 15.92 1.39 1.043 5.234-4.997 5.622-9.08 1.142 2.062 3.537 6.368 5.598 7.36-.225-3.122.039-2.979-.889-6.046.535-4.072.61-9.708.74-16.072 5.599 10.727 7.833 15.256 6.268 23.471 1.665.694 4.325-5.734 4.11-9.042 2.139 9.193 11.368 10.572 11.515 10.304z"/>
      <path stroke-linecap="round" stroke-linejoin="round" stroke-width="1.059" d="M305.356 67.72s-3.811 2.879-8.554 2.71c1.185 4.742 11.01 1.1 11.01 1.1s-4.743 5.252-8.131 6.099c2.033 1.693 10.587 1.1 12.027.254 1.44-.847 3.98-4.15 3.98-4.15S306.88 83.896 305.61 83.81c-.17 1.186 9.232.762 11.18-1.016 1.948-1.779 6.86-4.404 6.86-4.404s-12.873 8.977-13.466 8.977c4.827 1.27 14.483-1.524 20.666-5.336-9.148 6.098-9.994 7.2-14.652 9.232 4.15.931 6.267 3.726 20.327-2.372 8.046-3.81 12.619-10.756 12.619-10.756-4.997 6.69-12.874 12.366-21.597 17.955-.509 1.017 9.316 5.166 21.85-7.877"/>
      <path stroke-linecap="round" stroke-width="1.059" d="M373.451 96.006s.847 3.98 4.235 7.03c3.388 3.049 3.642 6.013 3.642 6.013M371.76 70.09s1.185 3.558 4.658 5.845c3.557 2.286 8.894 9.485 9.317 10.756.41 1.538 2.455 12.62 2.286 13.805m-37.859-24.901c.254 1.356-4.998 8.216 2.201 16.262-6.522 7.96-6.52 8.977-6.52 8.977s3.64 2.033 10.163-3.557c10.755 13.213 7.171 19.26 7.171 19.26"/>
      <path stroke-linecap="round" stroke-linejoin="round" stroke-width="1.059" d="M362.32 107.211s-.99-1.42.776-6.72c1.59 1.917 3.36 2.326 4.135 3.101.775.776 8.896 1.952 9.412 7.38"/>
      <path stroke-width="1.059" d="M371.864 57.462c0-.399-1.635-3.908-7.736.478 3.27.2 6.5 2.074 7.736-.478z"/>
      <path stroke-linejoin="round" stroke-width="1.059" d="M430.094 73.508c.3.15 18.229 4.034 24.205 2.092-7.62 10.16-22.86 3.287-22.86 3.287 7.47 2.24 7.77 2.092 10.16 4.183.747 1.943-13.746 1.046-18.527-1.643 13.298 4.183 13.596 3.884 14.045 5.528.598 2.241-21.814-.598-23.756-3.586 5.976 4.632 9.263 5.528 12.55 7.62-4.034 1.793-11.504 3.586-25.25-6.126 18.078 16.435 34.364 15.39 36.904 18.378-6.275 9.263-30.63-5.528-41.835-13-11.206-7.47 24.503 18.08 27.791 17.63-1.644 2.54-13.447.3-14.195-.896"/>
      <path stroke-linecap="round" stroke-width="1.059" d="M434.728 90.69c-2.09.3-8.366.3-9.262.15"/>
      <path stroke-linecap="round" stroke-linejoin="round" stroke-width="1.059" d="M300.105 65.009s13.636 7.199 19.395 6.69c-1.524 1.44-3.812 2.033-3.812 2.033 1.44.593 5.421 2.71 11.435 1.356-1.44 1.44-3.303 3.049-3.303 3.049s5.166 1.948 11.01-1.101c-1.778 2.202-2.795 3.81-2.795 3.81l4.065.255"/>
    </g>
  </g>
</svg>
