<svg xmlns="http://www.w3.org/2000/svg" id="flag-icon-css-bw" width="512" height="512">
  <g fill-rule="evenodd">
    <path fill="#00cbff" d="M0 0h511.993v511.984H0z"/>
    <path fill="#fff" d="M0 191.99h511.993v128.002H0z"/>
    <path d="M0 212.675h511.993v86.438H0z"/>
  </g>
</svg>
