<svg xmlns="http://www.w3.org/2000/svg" id="flag-icon-css-ci" width="512" height="512">
  <g fill-rule="evenodd">
    <path fill="#00cd00" d="M341.46 0h170.533v511.984H341.46z"/>
    <path fill="#ff9a00" d="M0 0h170.3v511.984H0z"/>
    <path fill="#fff" d="M170.3 0h171.16v511.984H170.3z"/>
  </g>
</svg>
