<svg xmlns="http://www.w3.org/2000/svg" id="flag-icon-css-cz" width="512" height="512">
  <defs>
    <clipPath id="a">
      <path fill-opacity=".67" d="M102.42 0h708.66v708.66H102.42z"/>
    </clipPath>
  </defs>
  <g fill-rule="evenodd" stroke-width="1pt" clip-path="url(#a)" transform="translate(-74) scale(.722)">
    <path fill="#e80000" d="M0 0h1063v708.66H0z"/>
    <path fill="#fff" d="M0 0h1063v354.33H0z"/>
    <path fill="#00006f" d="M0 0l529.732 353.88L0 707.3V0z"/>
  </g>
</svg>
