<svg xmlns="http://www.w3.org/2000/svg" id="flag-icon-css-dz" width="512" height="512">
  <path fill="#fff" d="M256 0h256v512H256z"/>
  <path fill="#006233" d="M0 0h256v512H0z"/>
  <path fill="#d21034" d="M366.933 192a128 128 0 1 0 0 128 102.4 102.4 0 1 1 0-128m4.267 64L256 218.453l71.68 98.134V195.413L256 293.547z"/>
</svg>
