<svg xmlns="http://www.w3.org/2000/svg" id="flag-icon-css-ee" width="512" height="512">
  <g fill-rule="evenodd" stroke-width="1pt" transform="scale(.482 .72)">
    <rect width="1063" height="708.66" rx="0" ry="0"/>
    <rect width="1063" height="236.22" y="475.56" fill="#fff" rx="0" ry="0"/>
    <path fill="#1291ff" d="M0 0h1063v236.22H0z"/>
  </g>
</svg>
