<svg xmlns="http://www.w3.org/2000/svg" id="flag-icon-css-gh" width="512" height="512">
  <path fill="#006b3f" d="M0 0h512v512H0z"/>
  <path fill="#fcd116" d="M0 0h512v341.333H0z"/>
  <path fill="#ce1126" d="M0 0h512v170.667H0z"/>
  <path d="M256 170.667l55.453 170.666-145.178-105.477h179.45L200.547 341.333z"/>
</svg>
