<svg xmlns="http://www.w3.org/2000/svg" id="flag-icon-css-gl" width="512" height="512">
  <path fill="#fff" d="M0 0h512v512H0z"/>
  <path fill="#d00c33" d="M0 256h512v256H0zm53.333 0c.015 94.246 76.42 170.64 170.667 170.64 94.246 0 170.652-76.394 170.667-170.64-.015-94.246-76.42-170.64-170.667-170.64-94.246 0-170.652 76.394-170.667 170.64"/>
</svg>
