<svg xmlns="http://www.w3.org/2000/svg" id="flag-icon-css-gy" width="512" height="512">
  <g fill-rule="evenodd">
    <path fill="#399408" d="M1.946 0H512v512H1.946z"/>
    <path fill="#fff" d="M.14 0c-.673.078 495.688 257.58 495.688 257.58L-.002 511.75.14 0z"/>
    <path fill="#ffde08" d="M.23 21.532c2.768 0 447.253 232.41 444.722 234.7L1.494 494.152.23 21.532z"/>
    <path d="M1.495.836c1.478 0 232.762 256.98 232.762 256.98L1.495 508.776V.826z"/>
    <path fill="#de2110" d="M.23 36.162c1.325-15.985 208.733 222.29 208.733 222.29L.23 481.812V36.162z"/>
  </g>
</svg>
