<svg xmlns="http://www.w3.org/2000/svg" id="flag-icon-css-jm" width="512" height="512">
  <g fill-rule="evenodd">
    <path d="M0 0l255.999 255.999L0 511.998zm511.998 0L255.999 255.999l255.999 255.999z"/>
    <path fill="#090" d="M0 0l255.999 255.999L511.998 0zm0 511.998l255.999-255.999 255.999 255.999z"/>
    <path fill="#fc0" d="M511.998 0h-47.701L0 464.297v47.701h47.701L511.998 47.701z"/>
    <path fill="#fc0" d="M0 0v47.703L464.297 512h47.701v-47.701L47.701.002z"/>
  </g>
</svg>
