<svg xmlns="http://www.w3.org/2000/svg" id="flag-icon-css-lu" width="512" height="512">
  <path fill="#00a1de" d="M0 256h512v256H0z"/>
  <path fill="#ed2939" d="M0 0h512v256H0z"/>
  <path fill="#fff" d="M0 170.667h512v170.666H0z"/>
</svg>
