<svg xmlns="http://www.w3.org/2000/svg" id="flag-icon-css-ml" width="512" height="512">
  <g fill-rule="evenodd">
    <path fill="red" d="M340.6 0h171.393v511.984H340.6z"/>
    <path fill="#009a00" d="M0 0h170.3v511.984H0z"/>
    <path fill="#ff0" d="M170.3 0h171.16v511.984H170.3z"/>
  </g>
</svg>
