<svg xmlns="http://www.w3.org/2000/svg" xmlns:xlink="http://www.w3.org/1999/xlink" id="flag-icon-css-mm" width="512" height="512">
  <defs>
    <path id="a" fill="#fff" d="M.162 0h-.324L0-.5z" transform="scale(8.844)"/>
    <g id="b">
      <use width="18" height="12" transform="rotate(-144)" xlink:href="#a"/>
      <use width="18" height="12" transform="rotate(-72)" xlink:href="#a"/>
      <use width="18" height="12" xlink:href="#a"/>
      <use width="18" height="12" transform="rotate(72)" xlink:href="#a"/>
      <use width="18" height="12" transform="rotate(144)" xlink:href="#a"/>
    </g>
  </defs>
  <path fill="#fecb00" d="M0 0h512v170.667H0z"/>
  <path fill="#ea2839" d="M0 341.333h512V512H0z"/>
  <path fill="#34b233" d="M0 170.667h512v170.666H0z"/>
  <use width="18" height="12" x="9" y="6.422" transform="translate(-127.659) scale(42.66667)" xlink:href="#b"/>
</svg>
