<svg xmlns="http://www.w3.org/2000/svg" id="flag-icon-css-mt" width="512" height="512">
  <g fill-rule="evenodd" stroke-width="1pt">
    <path fill="#ce0000" d="M256 0h256v511.984H256z"/>
    <path fill="#fff" d="M0 0h256v511.984H0z"/>
  </g>
  <g transform="matrix(.35005 0 0 .35003 40.728 -25.527)">
    <path fill="#f1eeee" fill-rule="evenodd" d="M183.107 381.66c0 2.314-2.62 4.19-5.853 4.19-3.232 0-5.852-1.876-5.852-4.19 0-2.313 2.62-4.188 5.852-4.188s5.853 1.875 5.853 4.189z"/>
    <path fill="#c00" fill-rule="evenodd" d="M.06 361.429v106.303h106.302c0 17.713 17.718 35.43 35.436 35.43v106.299h106.296V503.163c17.718 0 35.436-17.718 35.436-35.43h106.302V361.428H283.53c0-17.713-17.718-35.431-35.436-35.431V219.7H141.798v106.298c-17.718 0-35.436 17.718-35.436 35.43H.06z"/>
    <path fill="#ffe600" fill-rule="evenodd" d="M3.6 364.969v99.211h106.302c0 17.713 17.712 35.437 35.43 35.437v106.298h99.216V499.617c17.718 0 35.43-17.724 35.43-35.437H386.28v-99.21H279.978c0-17.713-17.712-35.437-35.43-35.437V223.234h-99.216v106.298c-17.718 0-35.43 17.724-35.43 35.437H3.6z"/>
    <path fill="#707070" fill-rule="evenodd" d="M7.04 368.509v92.131h106.296c0 17.712 17.718 35.43 35.436 35.43v106.3h92.124v-106.3c17.718 0 35.436-17.719 35.436-35.43h106.296v-92.132H276.332c0-17.713-17.718-35.43-35.436-35.43V226.78h-92.124v106.298c-17.718 0-35.436 17.718-35.436 35.43H7.04z"/>
    <path fill="#a0a0a0" fill-rule="evenodd" d="M10.58 372.049v85.04h106.296c0 17.711 17.718 35.436 35.436 35.436v106.297h85.038V492.525c17.718 0 35.436-17.725 35.436-35.437h106.296v-85.04H272.786c0-17.712-17.718-35.43-35.436-35.43V230.32h-85.038v106.298c-17.718 0-35.436 17.718-35.436 35.43H10.58z"/>
    <g fill-rule="evenodd">
      <path fill="#d0d0d0" d="M153.244 327.833c6.226 6.226 1.179 21.37-11.275 33.824s-27.597 17.5-33.824 11.274c-6.227-6.227-1.179-21.37 11.275-33.824s27.597-17.501 33.824-11.274z"/>
      <path fill="gray" d="M145.732 335.344c6.227 6.227 4.544 18.006-3.758 26.308s-20.081 9.985-26.308 3.758c-6.227-6.226-4.544-18.005 3.758-26.308s20.08-9.985 26.308-3.758z"/>
      <path fill="#d0d0d0" d="M114.406 354.133l2.505-2.505 10.022 5.011-5.011-10.022 2.505-2.506 10.022 20.044-20.043-10.022zm15.035-15.033l2.506-2.505 15.033 15.033-2.505 2.505z"/>
    </g>
    <g fill-rule="evenodd">
      <path fill="#d0d0d0" d="M281.617 372.927c-6.226 6.226-21.37 1.179-33.824-11.275s-17.5-27.597-11.274-33.824c6.227-6.227 21.37-1.179 33.824 11.275s17.501 27.597 11.274 33.824z"/>
      <path fill="gray" d="M274.106 365.415c-6.227 6.227-18.006 4.544-26.308-3.758s-9.985-20.081-3.758-26.308c6.226-6.227 18.005-4.544 26.308 3.758s9.985 20.08 3.758 26.308z"/>
      <path fill="#d0d0d0" d="M255.317 334.089l2.505 2.505-5.011 10.022 10.022-5.011 2.506 2.505-20.044 10.022 10.022-20.043zm15.033 15.035l2.505 2.506-15.033 15.033-2.505-2.505z"/>
    </g>
    <g fill-rule="evenodd">
      <path fill="#d0d0d0" d="M236.526 501.297c-6.226-6.226-1.179-21.37 11.275-33.824s27.597-17.5 33.824-11.274c6.227 6.227 1.179 21.37-11.275 33.824s-27.597 17.501-33.824 11.274z"/>
      <path fill="gray" d="M244.038 493.786c-6.227-6.227-4.544-18.006 3.758-26.308s20.081-9.985 26.308-3.758c6.227 6.226 4.544 18.005-3.758 26.308s-20.08 9.985-26.308 3.758z"/>
      <path fill="#d0d0d0" d="M275.364 474.997l-2.505 2.505-10.022-5.011 5.011 10.022-2.505 2.506-10.022-20.044 20.043 10.022zm-15.035 15.033l-2.506 2.505-15.033-15.033 2.505-2.505z"/>
    </g>
    <g fill-rule="evenodd">
      <path fill="#d0d0d0" d="M108.153 456.206c6.226-6.226 21.37-1.179 33.824 11.275s17.5 27.597 11.274 33.824c-6.227 6.227-21.37 1.179-33.824-11.275s-17.501-27.597-11.274-33.824z"/>
      <path fill="gray" d="M115.664 463.718c6.227-6.227 18.006-4.544 26.308 3.758s9.985 20.081 3.758 26.308c-6.226 6.227-18.005 4.544-26.308-3.758s-9.985-20.08-3.758-26.308z"/>
      <path fill="#d0d0d0" d="M134.453 495.044l-2.505-2.505 5.011-10.022-10.022 5.011-2.506-2.505L144.475 475l-10.022 20.043zm-15.033-15.035l-2.505-2.506 15.033-15.033 2.505 2.505z"/>
    </g>
    <path fill="none" stroke="#707070" stroke-width="1pt" d="M269.29 414.57c0 41.095-34.107 74.409-76.181 74.409s-76.181-33.314-76.181-74.409 34.107-74.409 76.181-74.409 76.181 33.314 76.181 74.409z" transform="matrix(.97674 0 0 1 6.263 0)"/>
    <path fill="none" stroke="#707070" stroke-width="1pt" d="M269.29 414.57c0 41.095-34.107 74.409-76.181 74.409s-76.181-33.314-76.181-74.409 34.107-74.409 76.181-74.409 76.181 33.314 76.181 74.409z" transform="matrix(.74419 0 0 .7619 51.172 98.707)"/>
    <path fill="#d0d0d0" fill-rule="evenodd" d="M170.08 474.8a3.543 3.543 0 1 1-7.087 0 3.543 3.543 0 0 1 7.087 0zm56.693 0a3.543 3.543 0 1 1-7.087 0 3.543 3.543 0 0 1 7.087 0zm-34.251.001v3.695h-4.725c-4.724 0-4.724 3.695 0 3.695h4.725v3.694c.016 3.83 4.123 4.291 4.424.299l.3-3.993h4.725c4.724 0 4.724-3.695 0-3.695h-4.725v-3.695c0-3.694-4.724-3.694-4.724 0z"/>
    <path fill="#d0d0d0" fill-rule="evenodd" stroke="#707070" stroke-width="1pt" d="M180.71 162.99v7.087s-3.362 5.423-24.803 7.086-24.803 0-24.803 0c.559 6.181 4.732 17.896 3.543 31.89.835 16.291-4.103 31.042-4.103 31.042.56.848-2.018 1.279-6.527.848 3.543-3.544 3.134-13.795 3.543-28.347.409-14.553-13.527-36.456-10.63-42.519s63.78-7.087 63.78-7.087z" transform="matrix(.33032 0 0 .29556 117.56 374.28)"/>
    <path fill="#d0d0d0" fill-rule="evenodd" stroke="#707070" stroke-width="1pt" d="M272.84 162.26c20.858-1.077 55.859-.843 55.859-.843s8.253 18.502 7.91 28.723-3.181 18.919-7.077 14.57 1.805-3.531 2.498-14.57c.692-11.039-6.661-22.479-6.661-22.479s-14.962 7.302-37.466 5.828c-22.503-1.474-12.541-10.791-15.063-11.229z" transform="matrix(.33032 0 0 .29556 115.22 366.9)"/>
    <path fill="#d0d0d0" fill-rule="evenodd" stroke="#707070" stroke-width="1pt" d="M312.21 273.91c20.858-1.077 34.551 2.498 34.551 2.498s8.253 18.502 7.91 28.723-3.181 18.919-7.077 14.57 1.805-3.531 2.498-14.57c.692-11.039-6.661-22.479-6.661-22.479s-14.962 7.302-37.466 5.828c-22.503-1.474-16.084-2.975-18.606-3.413s-3.131 6.958-37.176 7.992c-34.044 1.033-51.407-7.992-51.407-7.992s-3.362 5.423-24.803 7.086-24.803 0-24.803 0c.559 6.181 4.732 17.896 3.543 31.89.835 16.291-4.103 31.042-4.103 31.042.56.848-2.018 1.279-6.527.848 3.543-3.544 3.134-13.795 3.543-28.347.409-14.553-13.527-36.456-10.63-42.519s18.333-.395 21.26-3.544c2.926-3.149-13.749-25.333-10.63-46.063 3.12-20.731 20.792-14.886 42.52-14.173 21.727.712 69.865 7.003 81.496 0 11.632-7.003 6.598-32.929 17.717-49.606 7.086-10.63 17.716-14.173 28.346-14.173 7.087 0 17.717 28.346 17.717 35.433l-3.544 3.543h-3.543v3.543c-8.088.907-9.216-7.732-14.173-14.173-2.13 9.984 7.086 42.52 7.086 63.78 0 17.716-6.622 25.525-7.038 24.276z" transform="matrix(.33032 0 0 .29556 104.56 339.3)"/>
    <path fill="#d0d0d0" fill-rule="evenodd" stroke="#707070" stroke-width="1pt" d="M209.06 131.1c.294 7.062-27.384 22.895-29.637 29.164s7.036 9.744 4.163 13.321c-2.872 3.578-5.24 2.251-5.828 2.914-.588.664-10.407-24.56-10.407-24.56s25.961-13.084 24.977-18.733-19.171-9.085-22.479-23.312c-3.309-14.227-1.474-41.71-4.163-47.456-2.689-5.747-34.552-11.23-34.579-19.92-.027-8.69 32.75-32.541 36.293-36.085 3.543-3.543 7.087 3.543 3.543 7.087-3.543 3.543-29.206 25.455-29.206 28.998 0 3.543 21.26 7.086 28.347 7.086 7.086 0 10.63-3.543 10.63-7.086.042-3.066-7.087-3.544-7.087-10.63 0-7.087 3.543-10.63 10.63-10.63 3.543 0 10.356 4.537 10.63 10.63.274 6.092-6.305 6.608-7.087 10.63-.781 4.02 7.087 7.086 14.173 7.086 7.087 0 31.282 20.608 34.825 24.152 3.544 3.544 7.087 3.543 3.544 7.087-3.543 3.543-1.468 7.738-5.012 4.195-3.017-3.423-3.543-7.087-3.543-7.087-.306-3.22-26.27-17.716-29.814-14.173-3.543 3.543 0 46.064 0 49.606 0 7.086 7.381 7.062 7.087 17.716z" transform="matrix(.33032 0 0 .29556 116.1 372.43)"/>
    <path fill="#a7a7a7" fill-rule="evenodd" d="M170.23 386.9h14.045v14.662H170.23z"/>
    <rect width="87.553" height="1.139" x="405.61" y="64.582" fill="gray" fill-rule="evenodd" rx="1.27" ry=".57" transform="matrix(.5544 .83225 -.88236 .47057 0 0)"/>
    <path fill="#d0d0d0" fill-rule="evenodd" stroke="#707070" stroke-width="1pt" d="M180.71 42.52a7.087 7.087 0 1 1-14.173 0 7.087 7.087 0 0 1 14.173 0z" transform="matrix(.33032 0 0 .29556 114.05 362.81)"/>
    <path fill="gray" fill-rule="evenodd" d="M214.7 394.443c0 .867-5.434 1.886-11.705 1.886s-11.704-1.019-11.704-1.886c0-.868 5.433 1.257 11.704 1.257s11.705-2.125 11.705-1.257z"/>
    <path fill="#a7a7a7" fill-rule="evenodd" d="M171.4 401.56h11.704v4.189H171.4z"/>
    <path fill="gray" fill-rule="evenodd" d="M209.453 391.243c-1.135 2.126-2.212 3.643-2.405 3.388-.194-.254.57-2.184 1.704-4.31 1.135-2.125 2.212-3.642 2.405-3.388.193.255-.57 2.184-1.704 4.31zm2.979 5.497c-1.292 1.134-2.369 1.868-2.405 1.64-.037-.229.982-1.333 2.274-2.467 1.292-1.134 2.37-1.868 2.406-1.64.036.229-.982 1.333-2.275 2.467z"/>
    <path fill="gray" fill-rule="evenodd" d="M210.927 394.09c.953 1.733 1.581 3.2 1.403 3.276-.178.076-1.095-1.267-2.048-3-.953-1.734-1.581-3.201-1.403-3.277.178-.076 1.095 1.267 2.048 3zm-.91 9.04c0 .29-3.668.524-8.193.524s-8.193-.234-8.193-.524c0-.289 3.669-.523 8.193-.523 4.525 0 8.193.234 8.193.523zm-26.91-1.049c0 .29-2.62.524-5.853.524-3.232 0-5.852-.235-5.852-.524 0-.29 2.62-.524 5.852-.524s5.853.235 5.853.524z"/>
    <path fill="#d0d0d0" fill-rule="evenodd" stroke="gray" stroke-width="1pt" d="M375.49 171.92s8.938 36.133 47.04 36.633 51.215-10.838 35.8-29.972-44.084-13.182-40.379 3.33-10.752 22.019-14.154 10.407c-3.401-11.611-17.045-45.99 7.493-48.289 24.539-2.299 76.511-14.817 89.501 9.159 12.991 23.975-14.675 45.707 6.244 50.786 20.92 5.079 23.893-5.809 59.896-9.094 36.004-3.286 49.742 11.102 62.076 9.094 12.334-2.007 10.59-37.258.832-46.207-9.758-8.95-28.5-10.586-33.303-20.398-4.802-9.812-17.87-1.825-16.651-12.905s18.53 7.625 18.733 1.966c.006-.177 2.858-3.93 3.434-4.878-2.178-.828-3.421.512-5.056 1.948 1.775-2.36 1.665-3.448 2.26-5.378-.31-.727-2.461 2.734-2.825 2.011s2.505-5.632 1.206-3.852c-.45.513-3.872 3.329-3.91 1.389.058-.787 1.789-2.813 1.177-3.912-.493-.914-3.093 1.064-3.428 1.29 1.487-3.309 1.382-3.269-.048-5.721-1.249-2.452-2.16-2.395-4.2.374.849-3.979 1.08-4.821-.969-6.329-1.685-1.521-1.76-2.956-3.856 4.162.798-7.618-1.343-7.95-.454-11.562.529-3.312 3.323-4.71 7.927-3.978 8.945.13 13.728 17.954 16.651 17.9 2.924-.054 6.196-18.882 18.733-11.24 12.537 7.643 14.085 9.202 20.398 13.738 6.313 4.535-4.435 11.457-.833 20.398 3.602 8.94 28.229 38.804 21.231 69.935-6.999 31.131-25.026 36.055-26.642 49.538-1.617 13.483 57.067 7.951 72.017 12.49 14.949 4.536 24.375 23.11 24.977 26.224s-26.226 2.914-26.226 2.914-13.776-11.837-46.624-12.904c-32.847-1.068-45.355-23.109-57.651-25.87s-38.501 4.63-53.149 3.542c-14.649-1.087-29.488-4.943-38.976-7.086-9.489-2.142-56.693 35.433-56.529 44.184-9.84-.62-33.009-2.709-32.054-1.665.955 1.043 4.152-17.038 22.214-20.216 18.061-3.179 35.645-17.573 35.062-27.025-.583-9.45 3.487-41.876 4.995-55.782s8.27-20.616 6.661-27.89c-1.609-7.275-22.244-14.779-42.045-14.57-19.801.208-41.77 2.056-44.959 9.99-3.188 7.934-.781 30.964 3.331 28.308 4.111-2.657-.994-17.712 3.33-20.815 4.324-3.102 15.405-5.843 25.809-6.244 10.405-.4 28.494 14.73 28.308 19.565-.186 4.837 5.821 20.934-2.498 27.06-8.318 6.123-25.332 8.861-41.628 7.492-16.297-1.369-32.786-10.674-38.715-16.65-5.928-5.978-9.574-24.146-9.574-25.395z" transform="matrix(.21598 0 0 .12989 76.265 416.17)"/>
    <path fill-rule="evenodd" d="M209.473 431.552a.94.94 0 1 1-1.879 0 .94.94 0 0 1 1.879 0z"/>
    <path fill="#d0d0d0" d="M253.616 417.966l4.558.982 7.612-5.21-.59 2.736-3.965 2.649c-.74.486-1.471.931-2.192 1.334.452.632.953 1.386 1.5 2.265l2.454 3.974-.565 2.618-4.74-8.117-4.557-.982.485-2.25zm-7.756-33.513l8.816-4.06-2.395-5.202 1.18-.543 5.762 12.511-1.18.544-2.405-5.221-8.816 4.06-.962-2.09zm-13.663-16.616l8.116-7.432 1.594 1.74-.21 12.566 6.374-5.835 1.489 1.626-8.117 7.433-1.593-1.74.213-12.573-6.378 5.84-1.488-1.625zm-35.469-14.325l1.331-10.925 2.282.278-1.174 9.635 8.498 1.036-.157 1.29-10.78-1.314zm-17.447 1.578l-1.97-10.828 2.264-.412 1.737 9.55 8.42-1.531.233 1.278-10.684 1.943zm-32.257 15.904l-.807-1.008 5.743-4.608 2.553 3.189a16.252 16.252 0 0 1-1.922 3.193 16.018 16.018 0 0 1-2.622 2.647c-1.331 1.066-2.688 1.857-4.067 2.372-1.378.506-2.617.64-3.72.4-1.102-.239-1.992-.78-2.668-1.624-.669-.836-1.018-1.835-1.049-2.997-.025-1.172.339-2.348 1.093-3.53.755-1.18 1.808-2.312 3.16-3.395.981-.785 1.946-1.392 2.899-1.822.956-.437 1.803-.657 2.54-.659.74 0 1.457.194 2.154.585l-1.394 1.578c-.554-.275-1.082-.416-1.585-.423-.502-.009-1.095.138-1.774.439a9.151 9.151 0 0 0-2.054 1.268c-.82.656-1.463 1.305-1.934 1.944-.474.636-.793 1.231-.956 1.785-.158.55-.214 1.06-.171 1.53.08.81.37 1.524.866 2.145.614.766 1.332 1.241 2.159 1.426.832.179 1.747.075 2.742-.311.996-.387 1.943-.94 2.837-1.656a11.848 11.848 0 0 0 2.05-2.103c.588-.784.987-1.439 1.198-1.959l-1.281-1.6-3.99 3.194zm-.349 79.128l-8.974 6.372-6.789-9.56 1.06-.752 5.457 7.685 2.778-1.973-4.722-6.65 1.06-.753 4.722 6.65 4.076-2.894 1.332 1.875zm-13.23-14.318c1.276-.36 2.131-1.183 2.562-2.472.426-1.295.408-2.76-.054-4.396-.47-1.664-1.227-2.929-2.271-3.792-1.048-.871-2.252-1.114-3.616-.73-.861.244-1.548.688-2.057 1.332-.517.64-.826 1.453-.926 2.442-.107.984-.006 2.026.306 3.13.442 1.566 1.166 2.82 2.169 3.76.997.934 2.293 1.176 3.887.726zm.623 2.287c-1.758.497-3.344.14-4.757-1.071-1.418-1.209-2.46-2.994-3.125-5.35-.436-1.544-.596-3.003-.479-4.375s.504-2.498 1.16-3.382a4.656 4.656 0 0 1 2.563-1.783c1.074-.303 2.131-.23 3.172.213 1.041.446 1.958 1.235 2.75 2.364.788 1.135 1.388 2.427 1.797 3.879.445 1.575.6 3.052.47 4.425-.132 1.377-.524 2.503-1.178 3.377-.653.874-1.444 1.441-2.373 1.703zm.922-22.339l-11.003-.248.173-7.705c.035-1.55.162-2.724.381-3.525.213-.803.575-1.438 1.086-1.908.512-.47 1.07-.7 1.676-.687.78.018 1.43.433 1.947 1.242.517.811.83 2.051.937 3.72.198-.602.392-1.06.58-1.372a9.76 9.76 0 0 1 1.505-1.877l3.063-2.954-.065 2.892-2.34 2.249c-.677.656-1.194 1.197-1.555 1.624-.36.427-.613.812-.762 1.156a4.602 4.602 0 0 0-.315 1.038c-.042.26-.068.686-.082 1.277l-.06 2.668 4.886.11-.052 2.3zm-6.095-2.438l.111-4.944c.024-1.05-.024-1.873-.147-2.468-.126-.597-.336-1.053-.63-1.367-.298-.316-.625-.477-.98-.485-.52-.012-.955.28-1.304.873-.349.585-.538 1.52-.567 2.808l-.124 5.5 3.64.083zm30.573-48.416l.075-12.871 2.127-1.273 11.756 5.79-2.248 1.346-3.451-1.818-6.236 3.732.074 3.84-2.097 1.254zm1.983-6.453l5.055-3.026-3.12-1.684c-.952-.51-1.695-.953-2.231-1.324.173.717.265 1.48.275 2.284l.02 3.75zm53.155-3.443l11.876-4.965 2 1.458-.73 13.085-2.118-1.543.324-3.888-5.874-4.28-3.505 1.57-1.973-1.437zm6.715-.7l4.762 3.47.328-3.532c.1-1.074.215-1.931.348-2.57-.596.438-1.26.821-1.995 1.147l-3.443 1.486zm29.427 40.974l10.703-2.562 1.794 7.495c.36 1.506.537 2.674.53 3.507-.003.828-.19 1.535-.566 2.122-.375.585-.856.948-1.445 1.089-.759.181-1.492-.054-2.2-.706-.705-.65-1.324-1.772-1.853-3.36-.038.635-.108 1.129-.21 1.478a9.746 9.746 0 0 1-.98 2.196l-2.209 3.637-.673-2.812 1.692-2.77c.486-.807.848-1.464 1.089-1.967.239-.504.385-.943.442-1.314a4.56 4.56 0 0 0 .041-1.081c-.026-.263-.11-.682-.247-1.258l-.62-2.594-4.753 1.137-.535-2.237zm6.515.806l1.15 4.807c.245 1.024.501 1.807.771 2.352.274.544.593.93.958 1.161.368.228.725.3 1.07.218.506-.12.852-.512 1.04-1.174.188-.655.132-1.61-.168-2.863l-1.28-5.348-3.541.847z"/>
  </g>
</svg>
