<svg xmlns="http://www.w3.org/2000/svg" id="flag-icon-css-sx" width="512" height="512">
  <defs>
    <clipPath id="a">
      <path fill-opacity=".67" d="M0 0h450v450H0z"/>
    </clipPath>
  </defs>
  <g clip-path="url(#a)" transform="scale(1.1378)">
    <path fill="#ed2939" fill-rule="evenodd" d="M0 0h675v225H300L0 0z"/>
    <path fill="#002395" fill-rule="evenodd" d="M0 450h675V225H300L0 450z"/>
    <path fill="#fff" fill-rule="evenodd" d="M0 0l300 225L0 450V0z"/>
    <path fill="#ff0" d="M151.419 169.849l.092-3.484s-1.87-2.98.3-6.181c0 0-4.612-2.44-3.538-6.261 0 0-4.17-1.067-3.864-5.654 0 0-4.502-.313-4.968-4.145 0 0-4.502.741-6.483-2.993 0 0-4.39.858-5.63-2.22 0 0-4.268 1.478-6.801-2.14 0 0-4.508 1.82-6.397-1.595-1.864 3.404-6.372 1.594-6.372 1.594-2.502 3.606-6.802 2.11-6.802 2.11-1.196 3.09-5.575 2.214-5.575 2.214-1.974 3.735-6.47 2.992-6.47 2.992-.441 3.821-4.937 4.134-4.937 4.134.356 4.599-3.808 5.642-3.808 5.642 1.097 3.82-3.509 6.254-3.509 6.254 2.227 3.22.375 6.176.375 6.176l-.105 3.213 74.504.344"/>
    <path fill="none" stroke="#000" stroke-width=".271" d="M377.17 843.11l.091-3.458s-1.856-2.958.299-6.136c0 0-4.578-2.422-3.513-6.215 0 0-4.14-1.059-3.835-5.613 0 0-4.468-.31-4.93-4.114 0 0-4.469.736-6.435-2.971 0 0-4.358.852-5.588-2.204 0 0-4.237 1.468-6.751-2.125 0 0-4.474 1.808-6.35-1.582-1.85 3.379-6.324 1.582-6.324 1.582-2.484 3.58-6.75 2.094-6.75 2.094-1.188 3.068-5.534 2.198-5.534 2.198-1.96 3.708-6.422 2.97-6.422 2.97-.439 3.794-4.9 4.103-4.9 4.103.352 4.566-3.78 5.601-3.78 5.601 1.089 3.793-3.483 6.209-3.483 6.209 2.21 3.196.372 6.13.372 6.13l-.104 3.19 73.949.341h-.012z" transform="matrix(1.0075 0 0 1.0074 -228.58 -679.5)"/>
    <path fill="red" d="M149.686 165.497c-11.702-1.171-25.177-3.95-35.578 1.908-6.973-4.11-16.682-3.858-24.949-3.054-4.489.803-9.77.803-14.461 1.57l-.736.103c-8.513.565-16.234-1.95-23.631-5.255 2.349 13.332 4.955 26.995 6.237 40.953 2.79 20.672-9.782 38.027-4.624 58.448 3.078 9.8 13.854 15.496 23.716 16.625 9.55.564 19.43 2.128 28.268 4.047 1.68.35 3.673 1.13 4.832 1.631 2.435 1.018 4.22 2.515 5.784 4.116 5.336-5.557 13.155-7.102 20.87-7.918 13.904-1.625 31.045-.741 39.558-13.337v-.712c4.624-6.966 4.01-17.593 2.005-25.486-.135-2.753-.87-5.182-1.27-7.806-8.494-22.433-1.22-47.661 2.436-70.272-4.465 2.44-9.445 3.593-14.413 4.814-3.962.528-8.377.289-12.388.073l-1.662-.447"/>
    <path fill="#80cfe1" d="M167.156 229.88c-.055 1.477.742 2.637 1.03 4.004 1.626 9.806 3.196 22.794-6.9 28.878-11.168 7.1-25.814 4.06-38.736 7.818-2.582.718-6.139 3.091-7.954 4.771-1.166-.766-2.337-1.944-3.84-2.636-10.634-5.654-24.458-3.76-36.46-6.814-6.029-1.907-12.315-6.604-13.842-12.774-3.925-16.189 5.477-29.987 4.367-46.047-.718-12.265-2.779-24.039-5.612-35.537 9.384 4.372 20.245 5.102 30.794 3.005 7.814-1.092 16.91-1.116 24.232 2.19 4.035-1.737 8.758-2.516 13.106-2.994 8.268.804 17.154 2.3 25.667 2.239 5.686-.295 10.85-1.939 15.793-4.128-2.932 19.005-8.562 38.911-1.65 58.025"/>
    <path fill="#fff" d="M150.28 233.668l-.092-17.87h2.202l-27.316-17.643-.05-9.168h2.638l-13.659-9.78-13.59 9.774h2.63l.05 9.162-27.17 17.62 2.171.01.092 17.859 72.088.049"/>
    <path fill="none" stroke="#000" stroke-width="1.164" d="M376.04 906.46l-.091-17.739h2.185l-27.113-17.513-.049-9.1h2.618l-13.557-9.71-13.49 9.704h2.611l.05 9.094-26.968 17.49 2.155.011.091 17.727 71.551.05.006-.014z" transform="matrix(1.0075 0 0 1.0074 -228.58 -679.5)"/>
    <path fill="#fff" d="M158.683 257.14l.006 5.592-88.002-.098-.037-5.568 88.04.074"/>
    <path fill="none" stroke="#000" stroke-width="1.164" d="M384.38 929.76l.006 5.551-87.347-.097-.036-5.528 87.384.074h-.006z" transform="matrix(1.0075 0 0 1.0074 -228.58 -679.5)"/>
    <path fill="#fff" d="M76.531 256.808l-.073-18.925 3.563-.007-.196 19.145.214-18.991-5.133-.147v-4.06l78.65.086.036 4.023h-4.851l.092 19.164-.172-19.164h3.613l.08 18.948"/>
    <path fill="none" stroke="#000" stroke-width="1.164" d="M302.84 929.43l-.073-18.786 3.536-.007-.194 19.005.213-18.852-5.095-.146v-4.03l78.064.085.036 3.994h-4.815l.091 19.023-.17-19.023h3.585l.08 18.809" transform="matrix(1.0075 0 0 1.0074 -228.58 -679.5)"/>
    <path fill="none" stroke="#000" stroke-width="1.164" d="M319.62 924.8l-.055-13.1h-10.482l.061 13.087 10.476.013" transform="matrix(1.0075 0 0 1.0074 -228.58 -679.5)"/>
    <path fill="none" stroke="#000" stroke-width="1.164" d="M311.94 914.43l.03 7.61h4.797l-.024-7.61h-4.803m58.92 10.41l-.06-13.087-10.447-.012.049 13.099h10.458" transform="matrix(1.0075 0 0 1.0074 -228.58 -679.5)"/>
    <path fill="none" stroke="#000" stroke-width="1.164" d="M363.18 914.48l.055 7.585h4.79l-.042-7.585h-4.803m7.6-10.97l-.06-13.101h-10.46l.037 13.101h10.488-.006z" transform="matrix(1.0075 0 0 1.0074 -228.58 -679.5)"/>
    <path fill="none" stroke="#000" stroke-width="1.164" d="M363.1 893.16l.03 7.597h4.791l-.006-7.597H363.1m-43.57 10.3l-.073-13.076-10.464-.013.049 13.082h10.488v.007z" transform="matrix(1.0075 0 0 1.0074 -228.58 -679.5)"/>
    <path fill="none" stroke="#000" stroke-width="1.164" d="M311.85 893.11l.024 7.585 4.803.012-.036-7.597h-4.791m26.65 10.37l-.049-13.076-10.47-.012.043 13.087H338.5" transform="matrix(1.0075 0 0 1.0074 -228.58 -679.5)"/>
    <path fill="none" stroke="#000" stroke-width="1.164" d="M330.83 893.13l.024 7.585 4.797.024-.03-7.609h-4.791m22.29 10.38l-.073-13.101-10.464-.012.049 13.087 10.488.025" transform="matrix(1.0075 0 0 1.0074 -228.58 -679.5)"/>
    <path fill="none" stroke="#000" stroke-width="1.164" d="M345.44 893.14l.036 7.61h4.797l-.024-7.61h-4.809" transform="matrix(1.0075 0 0 1.0074 -228.58 -679.5)"/>
    <path fill="#fff" d="M129.808 226.646l.116 30.423-30.56-.05-.11-30.397 30.548.024"/>
    <path fill="none" stroke="#000" stroke-width="1.164" d="M355.72 899.49l.116 30.199-30.333-.049-.11-30.174 30.321.024h.006zm-30.51 8.62l30.54.024m-26.73 21.546l-.103-21.342m23.223 21.352l-.103-21.329m14.753-21.731l-17.081-12.474-19.193-.024-16.947 12.449 53.222.048M331.99 863.8l.03 7.61 16.144.011-.03-7.609-16.144-.012" transform="matrix(1.0075 0 0 1.0074 -228.58 -679.5)"/>
    <path fill="none" stroke="#000" stroke-width="1.164" d="M336.37 865.69l.024 3.792h7.415l-.025-3.792h-7.414m3.67-10.55l8.979 6.348-17.891-.023 8.912-6.325" transform="matrix(1.0075 0 0 1.0074 -228.58 -679.5)"/>
    <path fill="#fff" d="M150.583 177.636c2.57-.061 3.232 10.585 3.238 15.859 2.208.62 7.102 3.698 9.267 6.482l-24.827-.037c2.134-2.747 6.992-5.838 9.181-6.457 0-5.28.54-15.92 3.14-15.858"/>
    <path fill="none" stroke="#000" stroke-width="1.164" d="M376.34 850.84c2.55-.06 3.208 10.507 3.214 15.742 2.191.615 7.05 3.671 9.198 6.434l-24.642-.036c2.118-2.727 6.94-5.795 9.113-6.41 0-5.241.536-15.803 3.117-15.742m-49.53 49.502h2.21l-.646 1.186s1.066 1.37.019 2.94l.578 1.09h-2.13l.578-1.035s-1.09-1.82.048-2.995l-.657-1.186m4.5 0h2.21l-.64 1.186s1.066 1.334.007 2.94l.572 1.09h-2.125l.572-1.035s-1.065-1.82.055-2.995l-.651-1.186m4.92 0h2.204l-.658 1.186s1.078 1.37.018 2.94l.579 1.115-2.113-.024.567-1.036s-1.078-1.807.042-2.995l-.645-1.186h.006zm5.54.02h2.222l-.651 1.2s1.065 1.345.006 2.921l.596 1.108H341.8l.573-1.035s-1.066-1.832.073-2.995l-.67-1.199h-.006zm4.93 0h2.204l-.652 1.2s1.072 1.345.012 2.915l.585 1.114h-2.125l.554-1.035s-1.071-1.82.085-2.995l-.663-1.199m4.9.01l2.204-.012-.652 1.199s1.09 1.346.03 2.922l.555 1.108h-2.131l.572-1.035s-1.065-1.82.073-2.995l-.651-1.187" transform="matrix(1.0075 0 0 1.0074 -228.58 -679.5)"/>
    <path fill="#ff0" d="M114.675 296.066c11.444.037 25.52-2.3 32.112-5.708l14.48-1.283.288 17.668c-12.266 6.763-40.588 8.217-46.82 8.168-6.236.049-34.908-1.429-47.23-8.217l.16-17.68 14.51 1.306c6.594 3.392 21.098 5.746 32.53 5.746h-.03"/>
    <path fill="none" stroke="#000" stroke-width=".271" d="M340.7 968.4c11.359.036 25.329-2.283 31.873-5.667l14.372-1.273.286 17.538c-12.175 6.714-40.286 8.157-46.47 8.108-6.192.049-34.65-1.418-46.88-8.156l.158-17.55 14.403 1.296c6.544 3.367 20.94 5.704 32.287 5.704h-.03" transform="matrix(1.0075 0 0 1.0074 -228.58 -679.5)"/>
    <path fill="#ff0" d="M30.227 220.703l12.757 4.06-3.858 20.654-12.076 1.876s-2.036-10.861 3.177-26.603"/>
    <path fill="none" stroke="#000" stroke-width=".271" d="M256.88 893.59l12.662 4.03-3.829 20.503-11.986 1.862s-2.021-10.781 3.153-26.407v.012z" transform="matrix(1.0075 0 0 1.0074 -228.58 -679.5)"/>
    <path fill="#7e7e7e" d="M39.123 245.192l-12.07 2.104 7.636-10.86 4.434 8.756"/>
    <path fill="none" stroke="#000" stroke-width=".271" d="M265.71 917.9l-11.98 2.088 7.579-10.781 4.401 8.693" transform="matrix(1.0075 0 0 1.0074 -228.58 -679.5)"/>
    <path fill="#ff0" d="M22.6 235.582l12.296.888c.276 10.42 1.54 50.182 49.021 52.34l-1.478 14.467c-57.797.6-62.189-48.771-59.84-67.695"/>
    <path fill="none" stroke="#000" stroke-width=".271" d="M249.31 908.36l12.205.882c.274 10.343 1.528 49.813 48.656 51.956l-1.467 14.36c-57.367.596-61.726-48.413-59.394-67.198zm44.8 70.14l14.384-3.141" transform="matrix(1.0075 0 0 1.0074 -228.58 -679.5)"/>
    <path fill="#ff0" d="M198.116 220.854l-12.707 4.023 4.03 20.623 12.1 1.943s1.943-10.853-3.423-26.601"/>
    <path fill="none" stroke="#000" stroke-width=".271" d="M423.52 893.74l-12.613 3.993 4 20.472 12.01 1.93s1.93-10.775-3.397-26.407v.012z" transform="matrix(1.0075 0 0 1.0074 -228.58 -679.5)"/>
    <path fill="#7e7e7e" d="M189.432 245.283l12.1 2.171-7.74-10.866-4.36 8.695"/>
    <path fill="none" stroke="#000" stroke-width=".271" d="M414.9 917.99l12.01 2.155-7.682-10.786-4.328 8.631" transform="matrix(1.0075 0 0 1.0074 -228.58 -679.5)"/>
    <path fill="#ff0" d="M205.884 235.743l-12.314.84c-.178 10.407-1.086 50.187-48.568 52.297l1.613 14.454c57.785.668 61.76-48.68 59.27-67.597"/>
    <path fill="none" stroke="#000" stroke-width=".271" d="M431.23 908.52l-12.223.835c-.177 10.33-1.077 49.818-48.206 51.912l1.601 14.348c57.355.662 61.3-48.322 58.828-67.101v.005zm-44.19 70.05l-14.42-3.15" transform="matrix(1.0075 0 0 1.0074 -228.58 -679.5)"/>
    <path fill="#009fc5" d="M106.988 304.77c-.325.209-.767.264-1.276.24l-2.293-.117.196-2.863 2.275.122c.448.03.804.117 1.024.251.46.24.663.681.62 1.294-.03.527-.215.871-.552 1.073m-3.852 4.508l.227-3.49 2.674.185c.865.067 1.509-.16 1.944-.602.454-.43.687-.993.718-1.63.055-.743-.135-1.35-.577-1.798-.423-.43-1.024-.656-1.778-.73l-3.821-.238-.527 8.217 1.134.074m8.327-6.863l2.797.03c.405.037.724.086.957.197.429.202.631.607.631 1.195 0 .553-.16.92-.472 1.142-.3.201-.736.293-1.257.293l-2.686-.03.024-2.827m-.043 7.279l.025-3.508 2.625.037c.466 0 .81.037 1.048.153.387.178.577.553.595 1.067l.068 1.38c.018.331.024.534.043.668.036.098.055.203.104.277h1.41l-.024-.179c-.16-.085-.288-.25-.344-.502-.049-.16-.073-.399-.085-.7l-.025-1.097c-.018-.497-.104-.84-.294-1.03a1.47 1.47 0 0 0-.742-.528c.392-.208.687-.447.901-.742.203-.325.307-.736.307-1.238 0-.944-.387-1.589-1.172-1.938-.423-.19-.962-.289-1.6-.3l-3.944-.038-.03 8.242h1.134m8.754-1.742c-.503-.613-.773-1.38-.834-2.287-.055-1.141.166-2.012.687-2.6.527-.639 1.208-.945 2.097-.994.896-.049 1.632.24 2.178.803.558.552.877 1.319.932 2.276.03.919-.129 1.735-.552 2.452-.417.73-1.11 1.141-2.134 1.165-1.068.056-1.865-.195-2.374-.815m-1.35-5.188c-.527.815-.741 1.76-.686 2.9.08 1.233.46 2.251 1.177 3.018.798.766 1.853 1.152 3.153 1.079 1.392-.062 2.44-.59 3.152-1.557.577-.877.853-1.896.791-3.153-.08-1.122-.404-2.036-1.012-2.717-.766-.913-1.889-1.318-3.41-1.256-1.435.091-2.49.618-3.17 1.686m38.733-11.858c.791-.135 1.478-.097 2.104.117.92.288 1.54.97 1.926 2.011l-1.135.16c-.245-.564-.595-.95-1.067-1.165-.46-.202-1.037-.252-1.699-.153a2.645 2.645 0 0 0-1.828 1.122c-.429.662-.558 1.545-.368 2.673.16.933.503 1.723 1.068 2.25.52.54 1.288.73 2.287.59.748-.123 1.35-.423 1.773-.939.441-.49.57-1.232.423-2.189l-2.643.405-.135-.907 3.68-.565.717 4.36-.73.11-.454-1.005c-.306.454-.613.804-.883 1.005-.454.357-1.067.584-1.834.694-.993.153-1.9-.025-2.723-.552-.901-.669-1.484-1.662-1.705-3.042-.239-1.355-.024-2.514.601-3.428.595-.883 1.46-1.398 2.625-1.564m8.322-.622l2.637-.957c.362-.134.675-.178.945-.147.484.037.84.325 1.043.901.19.49.19.92-.025 1.221-.227.312-.583.54-1.098.73l-2.477.889-1.025-2.637m2.638 6.813l-1.288-3.305 2.453-.884c.46-.147.779-.227 1.018-.202.435.055.767.32.987.822l.558 1.257c.123.313.221.503.3.59.038.11.117.177.179.25l1.33-.49-.073-.178c-.196 0-.386-.11-.527-.326-.105-.152-.203-.373-.344-.63l-.435-1.031c-.197-.448-.399-.723-.632-.89a2.104 2.104 0 0 0-.877-.238c.27-.314.466-.626.54-.994.08-.374.043-.79-.135-1.257-.338-.877-.957-1.355-1.828-1.416-.46-.037-.987.06-1.594.275l-3.705 1.319 2.993 7.75 1.086-.398m9.638-4.107l-4.704-6.863 5.164-3.293.57.828-4.232 2.704 1.448 2.097 3.906-2.514.534.803-3.907 2.515 1.595 2.312 4.305-2.754.57.81-5.256 3.355m4.127-12.139l1.35-1.484c.625-.663 1.287-.963 2.011-.877.724.061 1.46.441 2.245 1.128.215.166.405.38.6.62.344.447.547.84.676 1.232.11.491.085.939-.086 1.368-.105.214-.289.466-.565.767l-1.355 1.472-4.876-4.238m7.127 3.231c.957-1.054 1.165-2.189.607-3.47a5.86 5.86 0 0 0-1.509-1.957c-.864-.767-1.766-1.159-2.717-1.232-1.054-.08-1.95.3-2.729 1.152l-2.3 2.465 6.342 5.532 2.3-2.477m4.919-6.406L187 273.415l.595-.944 7.31 4.262-.6.98m2.855-4.988l-7.882-3.153 2.325-5.544.957.368-1.896 4.569 2.374.933 1.772-4.208.908.375-1.754 4.2 2.656 1.08 1.944-4.624.956.361-2.367 5.643m3.623-9.681l-8.292-1.834.276-1.282 7.66-2.588-6.727-1.484.245-1.005 8.292 1.784-.264 1.244-7.672 2.644 6.728 1.454-.24 1.067m-.661-10.528l.105-1.042c.478.013.883-.062 1.19-.226.6-.326.95-.945 1.042-1.86.037-.428.018-.803-.08-1.158-.178-.686-.564-1.067-1.183-1.129-.46-.049-.792.062-1.03.314-.215.288-.442.704-.614 1.294l-.38 1.085c-.246.71-.473 1.201-.718 1.477-.392.516-.944.694-1.65.645-.754-.08-1.367-.38-1.803-.957-.448-.527-.631-1.281-.521-2.214.073-.852.356-1.57.859-2.146.466-.527 1.19-.78 2.115-.681l-.085 1.042c-.454 0-.816.08-1.08.264-.478.264-.742.822-.822 1.637-.067.675.025 1.129.282 1.473.258.288.583.471.963.502.405.037.724-.092.945-.404.16-.215.35-.682.607-1.436l.374-1.14c.184-.528.405-.932.662-1.22.46-.479 1.061-.681 1.816-.626.92.098 1.576.479 1.913 1.178.331.705.46 1.484.38 2.367-.104.999-.429 1.784-1.03 2.312-.6.539-1.35.723-2.257.65m-171.889-.504l.19 1.03c-.46.091-.828.276-1.098.515-.484.453-.65 1.134-.484 2.06.073.392.214.779.392 1.086.368.625.846.876 1.454.778.447-.08.742-.25.883-.57.135-.313.233-.791.263-1.404l.056-1.16c.036-.717.116-1.28.276-1.594.251-.564.723-.914 1.429-1.03a2.46 2.46 0 0 1 1.987.466c.576.399.957 1.092 1.098 2.011.177.841.098 1.595-.233 2.275-.32.663-.933 1.067-1.871 1.24l-.184-1.043c.435-.16.76-.313.975-.527.368-.412.479-1.006.337-1.821-.11-.663-.337-1.093-.68-1.307-.338-.252-.675-.35-1.043-.288-.41.062-.68.288-.81.656-.08.245-.14.754-.196 1.533l-.055 1.202c-.03.564-.116 1.03-.307 1.35-.3.588-.81.95-1.551 1.066-.939.16-1.662-.055-2.177-.656-.528-.589-.853-1.294-1.018-2.171-.184-1.043-.05-1.852.368-2.502.423-.668 1.091-1.054 1.999-1.183m-.524 10.857l8.108-2.44 1.889 5.708-.988.313-1.545-4.691-2.466.742 1.43 4.335-.945.301-1.417-4.347-2.747.82 1.57 4.796-.97.277-1.919-5.814m3.597 9.903l7.457-3.955.798 1.392-5.128 5.42 7.489-1.28.773 1.38-7.44 3.93-.527-.914 4.39-2.311c.16-.093.406-.228.761-.417.35-.16.743-.375 1.135-.577l-7.458 1.27-.545-.97 5.09-5.402-.245.123c-.16.091-.436.227-.81.44a6.133 6.133 0 0 1-.822.442l-4.379 2.349-.54-.931m13.894 10.992c-.374-.085-.742-.3-1.104-.675l-1.576-1.625 2.122-1.944 1.588 1.62c.307.3.503.594.608.846.147.484 0 .926-.448 1.342-.405.374-.81.528-1.19.436m-5.992.754l2.6-2.385 1.847 1.87c.595.607 1.202.883 1.84.871a2.595 2.595 0 0 0 1.698-.742c.552-.491.816-1.067.816-1.686-.006-.602-.282-1.165-.791-1.693l-2.65-2.705-6.17 5.667.798.803m7.455 6.62l4.47-7.01 5.287 3.214-.551.835-4.343-2.6-1.343 2.121 3.993 2.422-.515.804-3.999-2.41-1.521 2.373 4.397 2.643-.527.828-5.348-3.22m13.228-1.35l2.687.853c.38.116.656.263.84.43.343.324.435.79.233 1.354-.166.49-.417.81-.81.945-.35.06-.79.06-1.306-.099l-2.533-.809.89-2.674m-2.319 6.887l1.116-3.342 2.503.815c.447.117.772.277.932.442.306.276.398.687.245 1.196l-.374 1.33c-.086.325-.129.54-.166.638 0 .105 0 .215.019.288l1.318.43.08-.19c-.141-.111-.22-.313-.215-.564.031-.154.074-.399.16-.682l.319-1.067c.129-.466.178-.815.061-1.066a1.683 1.683 0 0 0-.54-.73c.418-.074.78-.203 1.086-.43.288-.251.534-.6.68-1.09.301-.89.136-1.632-.527-2.197-.33-.293-.803-.545-1.423-.778l-3.753-1.159-2.625 7.818 1.098.338"/>
    <path fill="#bc715f" d="M68.955 154.385c.969-2.337 9.948-8.708 39.41-5.918 0 0 4.98 3.042 7.906 2.65 1.668-.215-.982.103-3.159-1.706-2.22-1.808-2.692-5.518 2.38-5.42 5.047.129 23.943 1.196 24.299 2.894.33 1.717-9.991 2.434-13.83 2.336-3.858-.103-3.41 1.847.43 1.7 11.995-.43 25.089-4.656 38.919 5.126 1.65 1.19-4.17 1.38-8.672-.534 0 0-12.2.632-17.473-.232 0 0-4.054 3.298-9.335 2.974.687 1.71-1.95 8.095-18.552 3.292-2.741.841-12.732 2.515-11.64-.453-2.632 0-7.244.847-7.93-.65-.663-1.472 8.12-3.698 9.66-5.292 0 0-18.578.178-22.098-1.104 0 0-10.96 2.459-10.316.325"/>
    <path fill="#008737" d="M74.91 180.396c.398-.539.557-1.508 1.404-1.483 1.84.49 3.09 3.857 5.354 1.674.803-.178 1.11.914 1.772 1.043.423 1.87 1.926-.38 3.048-.252 2.398-1.067 5.367-1.319 8.206-.791.086 1.833-1.349 3.857-3.152 4.9.037 1.846 1.711 3.03 1.68 4.887-.288.693-.049 1.784-1.098 2.011-1.33-.239-2.643-.38-3.747-1.122-.135-.135-.245-.399-.527-.313-.135.62.834 1.233 1.214 1.865-.668 1.14-1.778.098-2.71.11-.277.656-.013 1.484-.688 1.907-1.177-.037-1.416-1.318-2.14-1.956-.742.803.521 1.282.7 1.92-.455 2.415-.393 4.776-2.81 6.359l-1.619.803c-.442-1.214-.166-3.054-.46-4.323-.957 1.557-1.705 2.92-3.11 4.237-1.643-.54-2.6-2.477-2.962-4.084-.686-1.87-.294-4.109 1.184-5.464-.503-.981-2.226-.754-2.471-2.152-2.583-1.68-4.011 2.944-5.68.54-.54-2.245.105-5.036 1.73-6.71-.362-.919-1.564-.68-2.276-1.207-1.625-1.38-3.968-2.84-3.851-5.33 4.446-1.68 9.764-.447 12.996 2.931"/>
    <path fill="#ff0" d="M77.216 180.145c-.104 2.035 1.374.551 2.472 1.784-.859-.338-1.484 1.484-2.324.441l-.528.504c.307.698.902.79.282 1.557-.92.35-1.104-.803-1.533-1.258-.074-.201.141-.582-.196-.717-.521.441-1.067.6-1.785.528-.196-.393-.576-.908-.19-1.208.705-.951 1.797.343 2.33-.325.086-.589-.429-1.306.24-1.712.46.08 1.048-.17 1.239.406m5.494 1.672c.056.393-.202.944.313 1.22.669-.362 1.38-.086 1.766.577-.006.355.105.821-.361.993l-1.043-.195c.074-.203-.258-.332-.386-.528-.46-.14-.73.233-1.074.46.258.392.853.607.712 1.11-.613.613-.914-.527-1.589-.24-.46-.177.166-1.134-.558-1.422-.858 0-.288 1.41-1.386.859-.392-.442-.779-1.037-.355-1.533.46-.308 1.238-.228 1.63.17.67-.74.737-3.605 2.338-1.471m-6.858 2.952c.448.644-.098 1.52.473 2.238.895-1.674 1.76.362 2.827.202.325.399.11.951.172 1.405-1.319.35-2.907.766-4.073-.289l-.325.374c.693.645 1.35 1.374.798 2.453-.988.215-2.515.24-3.012-.778-.257-.84.601-1.447-.306-2.122-.657.815-.626 1.908-1.994 1.165-.846-.466-1.097-1.428-.674-2.238.883-1.392 2.428.043 3.385-.638.135-1.196-.307-2.238.791-2.9.939-.166 1.374.539 1.944 1.128"/>
    <path fill="#fff" d="M79.604 185.504c-.441 2.036-1.975-.104-2.692-.19.957-1.698 1.558.552 2.692.19m4.776 2.216c-1.067.3-.902-1.03-1.43-1.552l.412-.374c.386.466.68 1.307 1.018 1.926"/>
    <path fill="#ff0" d="M82.939 187.307c.307.705-.693 1.27.16 1.785.27-.227.6-.54.742-.669.73.216 1.576.344 2.085 1.067.546 1.497-.97 1.46-1.828 1.877l-.852-.037c.202-.417-.368-.595-.51-.882-.392-.098-.717.024-.938.355.19.95 1.35 1.692.154 2.539-1.012-.067-2.582.325-2.49-1.074-.38-.79 1.03-2.011-.479-2.06-.497 1.068-1.042 2.097-2.336 1.086l.159-1.52c1.239.035 2.705.25 3.263-1.135.355-1.006-.62-1.932.251-2.73 1.264-.288 1.975.559 2.619 1.398"/>
    <path d="M82.032 189.594c.32.755-.54.804-.944 1.178-.546.043-.926-.172-1.257-.54-.246-.914.435-1.006.956-1.367.607-.252.859.453 1.245.73"/>
    <path fill="#fff" d="M81.287 190.088c-.135.178-.325.123-.528.171l-.19-.913c.405.036.932.165.718.742"/>
  </g>
</svg>
