<svg xmlns="http://www.w3.org/2000/svg" id="flag-icon-css-ua" width="512" height="512">
  <g fill-rule="evenodd" stroke-width="1pt">
    <path fill="#ffd500" d="M0 0h512.005v512H0z"/>
    <path fill="#005bbb" d="M0 0h512.005v256H0z"/>
  </g>
</svg>
